[ALI哇]	0
[BED飞吻]	0
[BM可爱]	0
[BOBO爱你]	0
[BOOB爱你]	0
[C亲亲]	0
[DIN爱你]	0
[DIN厉害]	0
[DIN帅]	0
[GST耐你]	0
[G得瑟]	0
[MOC亲吻]	0
[XB喜欢]	0
[XKL期待]	0
[XKL亲亲]	0
[XKL喜]	0
[XKL追]	0
[爱]	0
[爱你]	0
[被电]	0
[顶]	0
[发红包]	0
[放电]	0
[飞个吻]	0
[飞吻]	0
[给劲]	0
[给力]	0
[鼓掌]	0
[好爱哦]	0
[好棒]	0
[好喜欢]	0
[好爱哦]	0
[红心]	0
[互相膜拜]	0
[花]	0
[花心]	0
[欢腾去爱]	0
[加我一个]	0
[加油啊]	0
[可爱]	0
[酷]	0
[礼物]	0
[了不起爱]	0
[玫瑰]	0
[玫瑰花]	0
[美好]	0
[美味]	0
[萌]	0
[膜拜了]	0
[拍手]	0
[霹雳]	0
[期待]	0
[亲耳朵]	0
[亲亲]	0
[亲一口]	0
[热吻]	0
[色眯眯]	0
[叹号]	0
[陶醉了]	0
[推荐]	0
[推荐]	0
[威武]	0
[喜]	0
[喜欢]	0
[喜欢你]	0
[喜欢你]	0
[鲜花]	0
[心]	0
[心动]	0
[星星眼]	0
[阳光]	0
[有爱]	0
[右抱抱]	0
[晕晕]	0
[赞]	0
[赞啊]	0
[赠英雄]	0
[真美好]	0
[祝福]	0
[帅]	0
[礼物]	0
[给力]	0
[亲亲]	0
[赞]	0
[赞啊]	0
[不知所措]	1
[鸭梨很大]	1
[有鸭梨]	1
[躁狂症]	1
[XKL拥抱]	0
[拜年了]	0
[好可怜]	0
[可怜]	0
[可怜的]	0
[蜡烛]	0
[腊烛]	0
[你没事吧]	0
[祈祷]	0
[亲亲]	0
[拥抱]	0
[BM投诉]	1
[BM抓狂]	1
[DIN怒]	1
[LXHX不爽]	1
[MOC生气]	1
[草泥马]	1
[愤怒]	1
[哼]	1
[吼吼]	1
[怒]	1
[怒火]	1
[怒了]	1
[怒骂]	1
[怒怒]	1
[怒气]	1
[咆哮]	1
[上火]	1
[生气]	1
[抓狂]	1
[闭嘴]	1
[ALI郁闷]	1
[ALI转圈哭]	1
[BM悲催]	1
[BM孤独]	1
[BM哭泣]	1
[BM苦逼]	1
[BM流鼻涕]	1
[BOBO崩溃]	1
[ALI郁闷]	1
[LXHX失落]	1
[不活了]	1
[叹气]	1
[一声叹息]	1
[C伤心]	1
[DX哎]	1
[G爆哭]	1
[KM呜呜1]	1
[LXHX泪目]	1
[LXHX失落]	1
[NONO哭]	1
[PPB晴天霹雳]	1
[XB哭]	1
[XKL委屈]	1
[哎呦熊哭泣]	1
[哀悼]	1
[悲催]	1
[悲伤]	1
[崩溃]	1
[鼻涕]	1
[感冒]	1
[可怜]	1
[哭]	1
[哭泣男]	1
[哭泣女]	1
[蜡烛]	1
[腊烛]	1
[泪[泪]	1
[泪]	1
[泪流满面]	1
[伤心]	1
[生病]	1
[叹气]	1
[委屈]	1
[呜呜]	1
[心碎]	1
[一声叹息]	1
[晕晕]	1
[飙泪]	1
[飙泪中]	1
[伤心]	1
[泪]	1
[泪流满面]	1
[蜡烛]	1
[失望]	1
T=T	1
T_T	1
T0T	1
TAT	1
TOT	1
TTTT	1
TUT	1
TVT	1
[ALA啊哈哈哈]	0
[ALA蹦]	0
[ALA耶]	0
[ALI拜年]	0
[ALI拍拍手]	0
[ALI扑倒]	0
[ALI笑死了]	0
[ALI元宝]	0
[BED飞吻]	0
[BED嘿哈]	0
[BED兴奋]	0
[BM大笑]	0
[BM坏笑]	0
[BM啦啦队]	0
[BM吐舌头]	0
[BM兴奋]	0
[BOBO拜]	0
[BOBO拜年]	0
[BOBO哈哈]	0
[BOFU拜年]	0
[BOFU抖骚]	0
[BOOB爱你]	0
[CAI开心]	0
[CAI太好了]	0
[CAI正呀]	0
[CAI开心]	0
[C大笑]	0
[C得瑟]	0
[C开心]	0
[C看热闹]	0
[C甩舌头]	0
[C摇头萌]	0
[DIN鬼脸]	0
[DIN厉害]	0
[DIN拍手]	0
[DIN兴奋]	0
[DIN转转]	0
[DX拜年]	0
[GST回家啦]	0
[GST耐你]	0
[G鼓掌2]	0
[HI]	0
[J浪笑]	0
[J扭秧歌]	0
[LB呵]	0
[LB嘿嘿]	0
[LXHX得意]	0
[LXHX跳跃]	0
[LXHX笑]	0
[MOC强吻]	0
[MOC亲吻]	0
[NONO得瑟]	0
[NONO开心]	0
[PPB卖萌]	0
[TOTO拜年]	0
[XB喜欢]	0
[XB转圈]	0
[XB摇摆]	0
[XKL鞭炮]	0
[XKL亲亲]	0
[XKL撒花]	0
[XKL喜]	0
[ZXH得瑟]	0
[哎呦熊YES]	0
[蛋糕]	0
[得瑟]	0
[得意地笑]	0
[放假啦]	0
[飞个吻]	0
[感动]	0
[钢琴]	0
[高兴]	0
[给劲]	0
[哈哈]	0
[哈哈哈哈]	0
[花]	0
[坏笑]	0
[欢欢]	0
[欢腾去爱]	0
[金元宝]	0
[酷]	0
[啦啦啦啦]	0
[乐和]	0
[乐乐]	0
[礼花]	0
[了不起爱]	0
[玫瑰]	0
[起亚律动]	0
[巧克力]	0
[亲耳朵]	0
[亲亲]	0
[亲一口]	0
[青啤鸿运当头]	0
[让红包飞]	0
[热吻]	0
[撒花]	0
[太开心]	0
[偷乐]	0
[哇哈哈]	0
[微笑]	0
[嘻嘻]	0
[喜]	0
[笑哈哈]	0
[心]	0
[音乐]	0
[愉快]	0
[元宵快乐]	0
[圆蛋快乐]	0
[做鬼脸]	0
[挤眼]	0
[乐乐]	0
[礼花]	0
[飞个吻]	0
O(∩_∩)O	0
[C冷眼]	1
[C无聊]	1
[LXHX讨厌]	1
[白眼]	1
[鄙視]	1
[贬低]	1
[别烦我]	1
[不想上班]	1
[懒得理你]	1
[你没事吧]	1
[吐]	1
[懶得理你]	1
[閉嘴]	1
[挖鼻屎]	1